<?xml version="1.0"?>
<font>
  <info face="Arial" size="-14" bold="0" italic="0" charset="" unicode="1" stretchH="100" smooth="1" aa="1" padding="0,0,0,0" spacing="1,1" outline="0"/>
  <common lineHeight="16" base="13" scaleW="256" scaleH="256" pages="1" packed="0" alphaChnl="0" redChnl="0" greenChnl="0" blueChnl="0"/>
  <pages>
    <page id="0" file="arial14_0.png" />
  </pages>
  <chars count="95">
    <char id="32" x="22" y="36" width="3" height="1" xoffset="-1" yoffset="15" xadvance="4" page="0" chnl="15" />
    <char id="33" x="57" y="25" width="3" height="10" xoffset="1" yoffset="3" xadvance="5" page="0" chnl="15" />
    <char id="34" x="234" y="22" width="5" height="4" xoffset="0" yoffset="3" xadvance="5" page="0" chnl="15" />
    <char id="35" x="219" y="0" width="10" height="10" xoffset="-1" yoffset="3" xadvance="8" page="0" chnl="15" />
    <char id="36" x="58" y="0" width="8" height="12" xoffset="0" yoffset="2" xadvance="8" page="0" chnl="15" />
    <char id="37" x="135" y="0" width="12" height="10" xoffset="0" yoffset="3" xadvance="12" page="0" chnl="15" />
    <char id="38" x="43" y="14" width="9" height="10" xoffset="0" yoffset="3" xadvance="9" page="0" chnl="15" />
    <char id="39" x="240" y="22" width="3" height="4" xoffset="0" yoffset="3" xadvance="3" page="0" chnl="15" />
    <char id="40" x="21" y="0" width="5" height="13" xoffset="0" yoffset="3" xadvance="5" page="0" chnl="15" />
    <char id="41" x="15" y="0" width="5" height="13" xoffset="0" yoffset="3" xadvance="5" page="0" chnl="15" />
    <char id="42" x="228" y="22" width="5" height="4" xoffset="0" yoffset="3" xadvance="5" page="0" chnl="15" />
    <char id="43" x="195" y="22" width="8" height="7" xoffset="0" yoffset="5" xadvance="8" page="0" chnl="15" />
    <char id="44" x="244" y="22" width="2" height="3" xoffset="1" yoffset="12" xadvance="4" page="0" chnl="15" />
    <char id="45" x="16" y="36" width="5" height="1" xoffset="0" yoffset="9" xadvance="5" page="0" chnl="15" />
    <char id="46" x="26" y="36" width="2" height="1" xoffset="1" yoffset="12" xadvance="4" page="0" chnl="15" />
    <char id="47" x="34" y="25" width="6" height="10" xoffset="-1" yoffset="3" xadvance="4" page="0" chnl="15" />
    <char id="48" x="18" y="25" width="8" height="10" xoffset="0" yoffset="3" xadvance="8" page="0" chnl="15" />
    <char id="49" x="47" y="25" width="5" height="10" xoffset="1" yoffset="3" xadvance="8" page="0" chnl="15" />
    <char id="50" x="9" y="25" width="8" height="10" xoffset="0" yoffset="3" xadvance="8" page="0" chnl="15" />
    <char id="51" x="0" y="25" width="8" height="10" xoffset="0" yoffset="3" xadvance="8" page="0" chnl="15" />
    <char id="52" x="232" y="11" width="8" height="10" xoffset="0" yoffset="3" xadvance="8" page="0" chnl="15" />
    <char id="53" x="241" y="11" width="8" height="10" xoffset="0" yoffset="3" xadvance="8" page="0" chnl="15" />
    <char id="54" x="151" y="11" width="8" height="10" xoffset="0" yoffset="3" xadvance="8" page="0" chnl="15" />
    <char id="55" x="196" y="11" width="8" height="10" xoffset="0" yoffset="3" xadvance="8" page="0" chnl="15" />
    <char id="56" x="187" y="11" width="8" height="10" xoffset="0" yoffset="3" xadvance="8" page="0" chnl="15" />
    <char id="57" x="169" y="11" width="8" height="10" xoffset="0" yoffset="3" xadvance="8" page="0" chnl="15" />
    <char id="58" x="183" y="22" width="2" height="8" xoffset="1" yoffset="5" xadvance="4" page="0" chnl="15" />
    <char id="59" x="65" y="24" width="2" height="10" xoffset="1" yoffset="5" xadvance="4" page="0" chnl="15" />
    <char id="60" x="186" y="22" width="8" height="7" xoffset="0" yoffset="5" xadvance="8" page="0" chnl="15" />
    <char id="61" x="219" y="22" width="8" height="4" xoffset="0" yoffset="6" xadvance="8" page="0" chnl="15" />
    <char id="62" x="204" y="22" width="8" height="7" xoffset="0" yoffset="5" xadvance="8" page="0" chnl="15" />
    <char id="63" x="178" y="11" width="8" height="10" xoffset="0" yoffset="3" xadvance="8" page="0" chnl="15" />
    <char id="64" x="0" y="0" width="14" height="13" xoffset="0" yoffset="3" xadvance="14" page="0" chnl="15" />
    <char id="65" x="172" y="0" width="11" height="10" xoffset="-1" yoffset="3" xadvance="9" page="0" chnl="15" />
    <char id="66" x="93" y="12" width="9" height="10" xoffset="0" yoffset="3" xadvance="9" page="0" chnl="15" />
    <char id="67" x="208" y="0" width="10" height="10" xoffset="0" yoffset="3" xadvance="10" page="0" chnl="15" />
    <char id="68" x="0" y="14" width="10" height="10" xoffset="0" yoffset="3" xadvance="10" page="0" chnl="15" />
    <char id="69" x="103" y="12" width="9" height="10" xoffset="0" yoffset="3" xadvance="9" page="0" chnl="15" />
    <char id="70" x="113" y="12" width="9" height="10" xoffset="0" yoffset="3" xadvance="9" page="0" chnl="15" />
    <char id="71" x="148" y="0" width="11" height="10" xoffset="0" yoffset="3" xadvance="11" page="0" chnl="15" />
    <char id="72" x="123" y="11" width="9" height="10" xoffset="0" yoffset="3" xadvance="9" page="0" chnl="15" />
    <char id="73" x="53" y="25" width="3" height="10" xoffset="0" yoffset="3" xadvance="3" page="0" chnl="15" />
    <char id="74" x="27" y="25" width="6" height="10" xoffset="0" yoffset="3" xadvance="6" page="0" chnl="15" />
    <char id="75" x="11" y="14" width="10" height="10" xoffset="0" yoffset="3" xadvance="9" page="0" chnl="15" />
    <char id="76" x="160" y="11" width="8" height="10" xoffset="0" yoffset="3" xadvance="8" page="0" chnl="15" />
    <char id="77" x="184" y="0" width="11" height="10" xoffset="0" yoffset="3" xadvance="11" page="0" chnl="15" />
    <char id="78" x="33" y="14" width="9" height="10" xoffset="0" yoffset="3" xadvance="9" page="0" chnl="15" />
    <char id="79" x="196" y="0" width="11" height="10" xoffset="0" yoffset="3" xadvance="11" page="0" chnl="15" />
    <char id="80" x="83" y="12" width="9" height="10" xoffset="0" yoffset="3" xadvance="9" page="0" chnl="15" />
    <char id="81" x="67" y="0" width="11" height="11" xoffset="0" yoffset="3" xadvance="11" page="0" chnl="15" />
    <char id="82" x="22" y="14" width="10" height="10" xoffset="0" yoffset="3" xadvance="10" page="0" chnl="15" />
    <char id="83" x="73" y="12" width="9" height="10" xoffset="0" yoffset="3" xadvance="9" page="0" chnl="15" />
    <char id="84" x="63" y="13" width="9" height="10" xoffset="0" yoffset="3" xadvance="9" page="0" chnl="15" />
    <char id="85" x="53" y="14" width="9" height="10" xoffset="0" yoffset="3" xadvance="9" page="0" chnl="15" />
    <char id="86" x="160" y="0" width="11" height="10" xoffset="-1" yoffset="3" xadvance="9" page="0" chnl="15" />
    <char id="87" x="120" y="0" width="14" height="10" xoffset="0" yoffset="3" xadvance="13" page="0" chnl="15" />
    <char id="88" x="241" y="0" width="10" height="10" xoffset="-1" yoffset="3" xadvance="8" page="0" chnl="15" />
    <char id="89" x="230" y="0" width="10" height="10" xoffset="-1" yoffset="3" xadvance="9" page="0" chnl="15" />
    <char id="90" x="133" y="11" width="8" height="10" xoffset="0" yoffset="3" xadvance="8" page="0" chnl="15" />
    <char id="91" x="49" y="0" width="4" height="13" xoffset="0" yoffset="3" xadvance="4" page="0" chnl="15" />
    <char id="92" x="250" y="11" width="5" height="10" xoffset="0" yoffset="3" xadvance="4" page="0" chnl="15" />
    <char id="93" x="44" y="0" width="4" height="13" xoffset="0" yoffset="3" xadvance="4" page="0" chnl="15" />
    <char id="94" x="213" y="22" width="5" height="5" xoffset="0" yoffset="3" xadvance="5" page="0" chnl="15" />
    <char id="95" x="5" y="36" width="10" height="1" xoffset="-1" yoffset="15" xadvance="8" page="0" chnl="15" />
    <char id="96" x="0" y="36" width="4" height="2" xoffset="0" yoffset="3" xadvance="5" page="0" chnl="15" />
    <char id="97" x="92" y="23" width="8" height="8" xoffset="0" yoffset="5" xadvance="8" page="0" chnl="15" />
    <char id="98" x="214" y="11" width="8" height="10" xoffset="0" yoffset="3" xadvance="8" page="0" chnl="15" />
    <char id="99" x="169" y="22" width="6" height="8" xoffset="0" yoffset="5" xadvance="7" page="0" chnl="15" />
    <char id="100" x="223" y="11" width="8" height="10" xoffset="0" yoffset="3" xadvance="8" page="0" chnl="15" />
    <char id="101" x="101" y="23" width="8" height="8" xoffset="0" yoffset="5" xadvance="8" page="0" chnl="15" />
    <char id="102" x="41" y="25" width="5" height="10" xoffset="0" yoffset="3" xadvance="4" page="0" chnl="15" />
    <char id="103" x="88" y="0" width="8" height="11" xoffset="0" yoffset="5" xadvance="8" page="0" chnl="15" />
    <char id="104" x="142" y="11" width="8" height="10" xoffset="0" yoffset="3" xadvance="8" page="0" chnl="15" />
    <char id="105" x="61" y="25" width="3" height="10" xoffset="0" yoffset="3" xadvance="3" page="0" chnl="15" />
    <char id="106" x="39" y="0" width="4" height="13" xoffset="-1" yoffset="3" xadvance="3" page="0" chnl="15" />
    <char id="107" x="205" y="11" width="8" height="10" xoffset="0" yoffset="3" xadvance="7" page="0" chnl="15" />
    <char id="108" x="252" y="0" width="3" height="10" xoffset="0" yoffset="3" xadvance="3" page="0" chnl="15" />
    <char id="109" x="80" y="23" width="11" height="8" xoffset="0" yoffset="5" xadvance="11" page="0" chnl="15" />
    <char id="110" x="128" y="22" width="8" height="8" xoffset="0" yoffset="5" xadvance="8" page="0" chnl="15" />
    <char id="111" x="137" y="22" width="8" height="8" xoffset="0" yoffset="5" xadvance="8" page="0" chnl="15" />
    <char id="112" x="79" y="0" width="8" height="11" xoffset="0" yoffset="5" xadvance="8" page="0" chnl="15" />
    <char id="113" x="97" y="0" width="8" height="11" xoffset="0" yoffset="5" xadvance="8" page="0" chnl="15" />
    <char id="114" x="162" y="22" width="6" height="8" xoffset="0" yoffset="5" xadvance="5" page="0" chnl="15" />
    <char id="115" x="146" y="22" width="7" height="8" xoffset="0" yoffset="5" xadvance="7" page="0" chnl="15" />
    <char id="116" x="114" y="0" width="5" height="11" xoffset="-1" yoffset="2" xadvance="4" page="0" chnl="15" />
    <char id="117" x="110" y="23" width="8" height="8" xoffset="0" yoffset="5" xadvance="8" page="0" chnl="15" />
    <char id="118" x="154" y="22" width="7" height="8" xoffset="0" yoffset="5" xadvance="7" page="0" chnl="15" />
    <char id="119" x="68" y="24" width="11" height="8" xoffset="-1" yoffset="5" xadvance="9" page="0" chnl="15" />
    <char id="120" x="176" y="22" width="6" height="8" xoffset="0" yoffset="5" xadvance="6" page="0" chnl="15" />
    <char id="121" x="106" y="0" width="7" height="11" xoffset="0" yoffset="5" xadvance="7" page="0" chnl="15" />
    <char id="122" x="119" y="23" width="8" height="8" xoffset="-1" yoffset="5" xadvance="6" page="0" chnl="15" />
    <char id="123" x="27" y="0" width="5" height="13" xoffset="0" yoffset="3" xadvance="5" page="0" chnl="15" />
    <char id="124" x="54" y="0" width="3" height="13" xoffset="0" yoffset="3" xadvance="3" page="0" chnl="15" />
    <char id="125" x="33" y="0" width="5" height="13" xoffset="0" yoffset="3" xadvance="5" page="0" chnl="15" />
    <char id="126" x="247" y="22" width="8" height="2" xoffset="0" yoffset="7" xadvance="8" page="0" chnl="15" />
  </chars>
  <kernings count="70">
    <kerning first="32" second="65" amount="-1" />
    <kerning first="121" second="46" amount="-1" />
    <kerning first="121" second="44" amount="-1" />
    <kerning first="119" second="46" amount="-1" />
    <kerning first="119" second="44" amount="-1" />
    <kerning first="118" second="46" amount="-1" />
    <kerning first="118" second="44" amount="-1" />
    <kerning first="114" second="46" amount="-1" />
    <kerning first="114" second="44" amount="-1" />
    <kerning first="89" second="118" amount="-1" />
    <kerning first="49" second="49" amount="-1" />
    <kerning first="65" second="32" amount="-1" />
    <kerning first="65" second="84" amount="-1" />
    <kerning first="65" second="86" amount="-1" />
    <kerning first="65" second="87" amount="-1" />
    <kerning first="65" second="89" amount="-1" />
    <kerning first="89" second="117" amount="-1" />
    <kerning first="89" second="113" amount="-1" />
    <kerning first="89" second="112" amount="-1" />
    <kerning first="89" second="111" amount="-1" />
    <kerning first="70" second="44" amount="-2" />
    <kerning first="70" second="46" amount="-2" />
    <kerning first="70" second="65" amount="-1" />
    <kerning first="76" second="32" amount="-1" />
    <kerning first="76" second="84" amount="-1" />
    <kerning first="76" second="86" amount="-1" />
    <kerning first="76" second="87" amount="-1" />
    <kerning first="76" second="89" amount="-1" />
    <kerning first="76" second="121" amount="-1" />
    <kerning first="89" second="105" amount="-1" />
    <kerning first="89" second="101" amount="-1" />
    <kerning first="80" second="44" amount="-2" />
    <kerning first="80" second="46" amount="-2" />
    <kerning first="80" second="65" amount="-1" />
    <kerning first="89" second="97" amount="-1" />
    <kerning first="89" second="65" amount="-1" />
    <kerning first="89" second="58" amount="-1" />
    <kerning first="89" second="46" amount="-2" />
    <kerning first="89" second="45" amount="-1" />
    <kerning first="84" second="44" amount="-2" />
    <kerning first="84" second="45" amount="-1" />
    <kerning first="84" second="46" amount="-2" />
    <kerning first="84" second="58" amount="-2" />
    <kerning first="89" second="44" amount="-2" />
    <kerning first="84" second="65" amount="-1" />
    <kerning first="87" second="97" amount="-1" />
    <kerning first="84" second="97" amount="-2" />
    <kerning first="84" second="99" amount="-2" />
    <kerning first="84" second="101" amount="-2" />
    <kerning first="84" second="105" amount="-1" />
    <kerning first="84" second="111" amount="-2" />
    <kerning first="84" second="114" amount="-1" />
    <kerning first="84" second="115" amount="-2" />
    <kerning first="84" second="117" amount="-1" />
    <kerning first="84" second="119" amount="-1" />
    <kerning first="84" second="121" amount="-1" />
    <kerning first="86" second="44" amount="-1" />
    <kerning first="86" second="45" amount="-1" />
    <kerning first="86" second="46" amount="-1" />
    <kerning first="86" second="58" amount="-1" />
    <kerning first="87" second="65" amount="-1" />
    <kerning first="86" second="65" amount="-1" />
    <kerning first="86" second="97" amount="-1" />
    <kerning first="86" second="101" amount="-1" />
    <kerning first="87" second="46" amount="-1" />
    <kerning first="86" second="111" amount="-1" />
    <kerning first="86" second="114" amount="-1" />
    <kerning first="86" second="117" amount="-1" />
    <kerning first="86" second="121" amount="-1" />
    <kerning first="87" second="44" amount="-1" />
  </kernings>
</font>
